<?xml version="1.0" encoding="UTF-8"?>
<svg width="174px" height="57px" viewBox="0 0 174 57" version="1.1" xmlns="http://www.w3.org/2000/svg" xmlns:xlink="http://www.w3.org/1999/xlink">
    <!-- Generator: Sketch 44.1 (41455) - http://www.bohemiancoding.com/sketch -->
    <title>blanco</title>
    <desc>Created with Sketch.</desc>
    <defs></defs>
    <g id="Page-1" stroke="none" stroke-width="1" fill="none" fill-rule="evenodd">
        <g id="blanco">
            <path d="M0,50.237027 C-2.6152345e-17,50.0243228 0.173116563,49.8518919 0.386666667,49.8518919 C0.60021677,49.8518919 0.773333333,50.0243228 0.773333333,50.237027 L0.773333333,55.8445946 L4.22626667,55.8445946 C4.31821993,55.8456005 4.40594403,55.8832212 4.46986995,55.9490646 C4.53379587,56.014908 4.56860537,56.1034962 4.56653333,56.1950676 C4.56758039,56.2852701 4.5320673,56.3720828 4.46802654,56.4358699 C4.40398578,56.499657 4.31682793,56.5350294 4.22626667,56.5339865 L0.386666667,56.5339865 C0.173116563,56.5339865 2.6152345e-17,56.3615556 0,56.1488514 L0,50.237027 Z" id="Shape" fill="#FFFFFF" fill-rule="nonzero"></path>
            <path d="M5.0924,56.1565541 L5.0924,50.2870946 C5.0924,50.0743903 5.26551656,49.9019595 5.47906667,49.9019595 L9.59706667,49.9019595 C9.72800847,49.8880761 9.85542412,49.9498355 9.92525422,50.0610347 C9.99508432,50.1722338 9.99508432,50.3133743 9.92525422,50.4245734 C9.85542412,50.5357726 9.72800847,50.597532 9.59706667,50.5836486 L5.84253333,50.5836486 L5.84253333,52.8482432 L9.17173333,52.8482432 C9.35878481,52.8503251 9.50990984,53.0008516 9.512,53.1871622 C9.51303316,53.2777145 9.47764036,53.3649126 9.41371566,53.4293076 C9.34979096,53.4937027 9.26265162,53.5299383 9.17173333,53.5299324 L5.84253333,53.5299324 L5.84253333,55.8407432 L9.66666667,55.8407432 C9.84163703,55.8592949 9.97437321,56.0063259 9.97437321,56.1815878 C9.97437321,56.3568498 9.84163703,56.5038808 9.66666667,56.5224324 L5.4636,56.5224324 C5.26338048,56.5146915 5.10226774,56.3558885 5.0924,56.1565541 Z" id="Shape" fill="#FFFFFF" fill-rule="nonzero"></path>
            <path d="M10.2621333,56.0410135 L12.9688,50.1638514 C13.0389027,49.9627423 13.2306959,49.8291742 13.4444,49.8326351 L13.4830667,49.8326351 C13.6950821,49.8288618 13.8848078,49.9631741 13.9509333,50.1638514 L16.6576,56.0333108 C16.6848344,56.0927534 16.7005758,56.1567765 16.704,56.222027 C16.704,56.419842 16.5430016,56.5802027 16.3444,56.5802027 C16.170282,56.5801127 16.0152251,56.4704584 15.9577333,56.3067568 L15.2617333,54.7662162 L11.6,54.7662162 L10.9078667,56.3067568 C10.8525153,56.45925 10.7071983,56.560877 10.5444,56.5609459 C10.4538387,56.5619889 10.3666809,56.5266164 10.3026401,56.4628293 C10.2385994,56.3990422 10.2030863,56.3122296 10.2041333,56.222027 C10.2095891,56.1581195 10.229412,56.0962537 10.2621333,56.0410135 Z M14.9678667,54.1153378 L13.4212,50.7261486 L11.8745333,54.1153378 L14.9678667,54.1153378 Z" id="Shape" fill="#FFFFFF" fill-rule="nonzero"></path>
            <path d="M17.3342667,50.2870946 C17.3342667,50.0743903 17.5073832,49.9019595 17.7209333,49.9019595 L19.6542667,49.9019595 C21.7461333,49.9019595 23.1884,51.3308108 23.1884,53.1987162 L23.1884,53.217973 C23.1884,55.082027 21.7461333,56.5301351 19.6542667,56.5301351 L17.7209333,56.5301351 C17.5073832,56.5301351 17.3342667,56.3577043 17.3342667,56.145 L17.3342667,50.2870946 Z M19.6542667,55.8445946 C21.3362667,55.8445946 22.4112,54.7084459 22.4112,53.2410811 L22.4112,53.2218243 C22.4112,51.7544595 21.3362667,50.5990541 19.6542667,50.5990541 L18.1076,50.5990541 L18.1076,55.8445946 L19.6542667,55.8445946 Z" id="Shape" fill="#FFFFFF" fill-rule="nonzero"></path>
            <path d="M24.0429333,50.237027 C24.0037882,50.0814546 24.0655352,49.918004 24.1979343,49.8267238 C24.3303335,49.7354436 24.5056665,49.7354436 24.6380657,49.8267238 C24.7704648,49.918004 24.8322118,50.0814546 24.7930667,50.237027 L24.7930667,56.2027703 C24.8322118,56.3583427 24.7704648,56.5217933 24.6380657,56.6130735 C24.5056665,56.7043537 24.3303335,56.7043537 24.1979343,56.6130735 C24.0655352,56.5217933 24.0037882,56.3583427 24.0429333,56.2027703 L24.0429333,50.237027 Z" id="Shape" fill="#FFFFFF" fill-rule="nonzero"></path>
            <path d="M25.9530667,50.2485811 C25.9530667,50.0358768 26.1261832,49.8634459 26.3397333,49.8634459 L26.4441333,49.8634459 C26.6015806,49.8647083 26.747448,49.9460705 26.8308,50.0791216 L30.8482667,55.2283784 L30.8482667,50.2216216 C30.8338954,50.0826544 30.9002284,49.9476651 31.0192254,49.8737161 C31.1382224,49.7997671 31.289111,49.7997671 31.408108,49.8737161 C31.527105,49.9476651 31.5934379,50.0826544 31.5790667,50.2216216 L31.5790667,56.2297297 C31.5833333,56.3219059 31.5492472,56.4117547 31.4848471,56.4780865 C31.4204469,56.5444184 31.3314337,56.5813612 31.2388,56.5802027 L31.2001333,56.5802027 C31.0427425,56.5685942 30.8997775,56.4845789 30.8134667,56.352973 L26.68,51.080473 L26.68,56.2297297 C26.6943712,56.368697 26.6280383,56.5036862 26.5090413,56.5776352 C26.3900443,56.6515843 26.2391557,56.6515843 26.1201587,56.5776352 C26.0011617,56.5036862 25.9348288,56.368697 25.9492,56.2297297 L25.9530667,50.2485811 Z" id="Shape" fill="#FFFFFF" fill-rule="nonzero"></path>
            <path d="M32.3756,53.2410811 L32.3756,53.2218243 C32.3484243,52.3227473 32.6878336,51.4510091 33.3164845,50.805258 C33.9451355,50.1595068 34.8094723,49.7947553 35.7125333,49.7941216 C36.5283773,49.7636181 37.3298841,50.0138619 37.9822667,50.5027703 C38.0785509,50.574688 38.1357253,50.6871601 38.1369333,50.807027 C38.1369333,51.0197313 37.9638168,51.1921622 37.7502667,51.1921622 C37.6626415,51.1869692 37.5788308,51.1546549 37.5105333,51.0997297 C36.9895704,50.6846497 36.3367541,50.4688168 35.67,50.4912162 C34.1968,50.4912162 33.1412,51.7313514 33.1412,53.2102703 L33.1412,53.229527 C33.1412,54.8085811 34.1581333,55.9832432 35.7744,55.9832432 C36.4751455,55.9843548 37.1559722,55.7510781 37.7077333,55.3208108 L37.7077333,53.6724324 L35.9213333,53.6724324 C35.7355447,53.6724324 35.5849333,53.5224176 35.5849333,53.3373649 C35.5849333,53.1523122 35.7355447,53.0022973 35.9213333,53.0022973 L38.0596,53.0022973 C38.2731501,53.0022973 38.4462667,53.1747282 38.4462667,53.3874324 L38.4462667,55.4055405 C38.4451438,55.5906124 38.3488019,55.7621779 38.1910667,55.86 C37.4924713,56.3784602 36.6455825,56.6605381 35.7744,56.6649324 C33.6670667,56.649527 32.3756,55.1320946 32.3756,53.2410811 Z" id="Shape" fill="#FFFFFF" fill-rule="nonzero"></path>
            <path d="M41.0988,53.2410811 L41.0988,53.2218243 C41.0716243,52.3227473 41.4110336,51.4510091 42.0396845,50.805258 C42.6683355,50.1595068 43.5326723,49.7947553 44.4357333,49.7941216 C45.2516623,49.7629844 46.0533774,50.0132932 46.7054667,50.5027703 C46.8017509,50.574688 46.8589253,50.6871601 46.8601333,50.807027 C46.8601333,51.0197313 46.6870168,51.1921622 46.4734667,51.1921622 C46.386651,51.1886225 46.3035625,51.1560614 46.2376,51.0997297 C45.7149566,50.6849858 45.0610722,50.469253 44.3932,50.4912162 C42.92,50.4912162 41.8644,51.7313514 41.8644,53.2102703 L41.8644,53.229527 C41.8644,54.8085811 42.8813333,55.9832432 44.4976,55.9832432 C45.1983455,55.9843548 45.8791722,55.7510781 46.4309333,55.3208108 L46.4309333,53.6724324 L44.6445333,53.6724324 C44.4587447,53.6724324 44.3081333,53.5224176 44.3081333,53.3373649 C44.3081333,53.1523122 44.4587447,53.0022973 44.6445333,53.0022973 L46.7866667,53.0022973 C47.0002168,53.0022973 47.1733333,53.1747282 47.1733333,53.3874324 L47.1733333,55.4055405 C47.1722105,55.5906124 47.0758685,55.7621779 46.9181333,55.86 C46.219538,56.3784602 45.3726492,56.6605381 44.5014667,56.6649324 C42.3902667,56.649527 41.0988,55.1320946 41.0988,53.2410811 Z" id="Shape" fill="#FFFFFF" fill-rule="nonzero"></path>
            <path d="M48.0549333,50.237027 C48.0157882,50.0814546 48.0775352,49.918004 48.2099343,49.8267238 C48.3423335,49.7354436 48.5176665,49.7354436 48.6500657,49.8267238 C48.7824648,49.918004 48.8442118,50.0814546 48.8050667,50.237027 L48.8050667,55.8445946 L52.258,55.8445946 C52.3499533,55.8456005 52.4376774,55.8832212 52.5016033,55.9490646 C52.5655292,56.014908 52.6003387,56.1034962 52.5982667,56.1950676 C52.5993137,56.2852701 52.5638006,56.3720828 52.4997599,56.4358699 C52.4357191,56.499657 52.3485613,56.5350294 52.258,56.5339865 L48.4261333,56.5339865 C48.2125832,56.5339865 48.0394667,56.3615556 48.0394667,56.1488514 L48.0549333,50.237027 Z" id="Shape" fill="#FFFFFF" fill-rule="nonzero"></path>
            <path d="M52.4745333,53.2410811 L52.4745333,53.2218243 C52.4293053,51.9874313 53.0634181,50.8266903 54.1285762,50.1941053 C55.1937342,49.5615203 56.5204374,49.5577555 57.5891969,50.184285 C58.6579564,50.8108146 59.2986991,51.9679379 59.2605333,53.2025676 L59.2605333,53.2218243 C59.3057613,54.4562173 58.6716485,55.6169584 57.6064905,56.2495434 C56.5413324,56.8821283 55.2146293,56.8858932 54.1458698,56.2593636 C53.0771102,55.6328341 52.4363676,54.4757108 52.4745333,53.2410811 L52.4745333,53.2410811 Z M58.4833333,53.2410811 L58.4833333,53.2218243 C58.5105418,52.5089467 58.2467384,51.8154821 57.7520781,51.299561 C57.2574177,50.7836398 56.574073,50.4892473 55.8578667,50.4835135 C55.1460672,50.4859612 54.4660554,50.777441 53.9749194,51.2906187 C53.4837835,51.8037963 53.2240068,52.494282 53.2556,53.2025676 L53.2556,53.2218243 C53.2283907,53.9336803 53.4917863,54.6261656 53.9857216,55.1413647 C54.4796569,55.6565639 55.1620187,55.9505506 55.8772,55.9562838 C56.5886228,55.9537502 57.2683683,55.6629167 57.7599905,55.1507196 C58.2516126,54.6385225 58.5127618,53.949084 58.4833333,53.2410811 Z" id="Shape" fill="#FFFFFF" fill-rule="nonzero"></path>
            <path d="M60.0570667,50.2870946 C60.0570667,50.0743903 60.2301832,49.9019595 60.4437333,49.9019595 L62.9068,49.9019595 C63.540485,49.8655851 64.1633986,50.0770067 64.6429333,50.4912162 C64.9252534,50.7710325 65.0803347,51.153721 65.0721333,51.5503378 L65.0721333,51.5503378 C65.0887433,52.2363057 64.6639195,52.8562929 64.0165333,53.0908784 C64.7898667,53.3258108 65.4433333,53.7802703 65.4433333,54.6930405 L65.4433333,54.6930405 C65.4433333,55.8291892 64.4844,56.5031757 63.0305333,56.5031757 L60.4437333,56.5031757 C60.2301832,56.5031757 60.0570667,56.3307448 60.0570667,56.1180405 L60.0570667,50.2870946 Z M62.7637333,52.8597973 C63.6646667,52.8597973 64.3104,52.4515541 64.3104,51.6774324 L64.3104,51.6581757 C64.3104,51.0034459 63.7845333,50.5797973 62.8333333,50.5797973 L60.8110667,50.5797973 L60.8110667,52.8597973 L62.7637333,52.8597973 Z M63.0266667,55.8445946 C64.032,55.8445946 64.6584,55.4016892 64.6584,54.6622297 L64.6584,54.642973 C64.6584,53.9227703 64.0513333,53.5068243 62.8913333,53.5068243 L60.7917333,53.5068243 L60.7917333,55.8445946 L63.0266667,55.8445946 Z" id="Shape" fill="#FFFFFF" fill-rule="nonzero"></path>
            <path d="M65.7333333,56.0410135 L68.44,50.1638514 C68.5090769,49.9619721 68.7015217,49.8279501 68.9156,49.8326351 L68.9542667,49.8326351 C69.1656561,49.8280332 69.3547133,49.9629875 69.4182667,50.1638514 L72.1249333,56.0333108 C72.1549903,56.091933 72.1721282,56.1562739 72.1752,56.222027 C72.1752056,56.3176922 72.1367889,56.4093841 72.0685122,56.4766669 C72.0002355,56.5439497 71.9077734,56.5812314 71.8117333,56.5802027 C71.6379841,56.5789685 71.4835214,56.4697344 71.4250667,56.3067568 L70.7329333,54.7662162 L67.0828,54.7662162 L66.3868,56.3067568 C66.3319371,56.4579316 66.1885786,56.5592669 66.0272,56.5609459 C65.9366387,56.5619889 65.8494809,56.5266164 65.7854401,56.4628293 C65.7213994,56.3990422 65.6858863,56.3122296 65.6869333,56.222027 C65.6888125,56.1590198 65.7046575,56.0972061 65.7333333,56.0410135 Z M70.4390667,54.1153378 L68.8924,50.7261486 L67.3457333,54.1153378 L70.4390667,54.1153378 Z" id="Shape" fill="#FFFFFF" fill-rule="nonzero"></path>
            <path d="M72.79,50.237027 C72.75467,50.0826187 72.817838,49.9224086 72.9492174,49.8332111 C73.0805969,49.7440136 73.2534031,49.7440136 73.3847826,49.8332111 C73.516162,49.9224086 73.57933,50.0826187 73.544,50.237027 L73.544,55.8445946 L76.9930667,55.8445946 C77.0850199,55.8456005 77.172744,55.8832212 77.2366699,55.9490646 C77.3005959,56.014908 77.3354054,56.1034962 77.3333333,56.1950676 C77.3343804,56.2852701 77.2988673,56.3720828 77.2348265,56.4358699 C77.1707858,56.499657 77.0836279,56.5350294 76.9930667,56.5339865 L73.1612,56.5339865 C72.9476499,56.5339865 72.7745333,56.3615556 72.7745333,56.1488514 L72.79,50.237027 Z" id="Shape" fill="#FFFFFF" fill-rule="nonzero"></path>
            <path d="M79.9472,56.1565541 L79.9472,50.2870946 C79.9472,50.0743903 80.1203166,49.9019595 80.3338667,49.9019595 L84.4673333,49.9019595 C84.5982751,49.8880761 84.7256908,49.9498355 84.7955209,50.0610347 C84.865351,50.1722338 84.865351,50.3133743 84.7955209,50.4245734 C84.7256908,50.5357726 84.5982751,50.597532 84.4673333,50.5836486 L80.6973333,50.5836486 L80.6973333,52.8482432 L84.0265333,52.8482432 C84.2135848,52.8503251 84.3647098,53.0008516 84.3668,53.1871622 C84.3678332,53.2777145 84.3324404,53.3649126 84.2685157,53.4293076 C84.204591,53.4937027 84.1174516,53.5299383 84.0265333,53.5299324 L80.6973333,53.5299324 L80.6973333,55.8407432 L84.5021333,55.8407432 C84.6771037,55.8592949 84.8098399,56.0063259 84.8098399,56.1815878 C84.8098399,56.3568498 84.6771037,56.5038808 84.5021333,56.5224324 L80.3184,56.5224324 C80.1181805,56.5146915 79.9570677,56.3558885 79.9472,56.1565541 L79.9472,56.1565541 Z" id="Shape" fill="#FFFFFF" fill-rule="nonzero"></path>
            <path d="M85.5268,50.2870946 C85.5265421,50.0816891 85.6881688,49.9122296 85.8941333,49.9019595 L87.8274667,49.9019595 C89.9193333,49.9019595 91.3616,51.3308108 91.3616,53.1987162 L91.3616,53.217973 C91.3616,55.082027 89.9193333,56.5301351 87.8274667,56.5301351 L85.8941333,56.5301351 C85.6881688,56.519865 85.5265421,56.3504055 85.5268,56.145 L85.5268,50.2870946 Z M87.8468,55.8445946 C89.5288,55.8445946 90.6037333,54.7084459 90.6037333,53.2410811 L90.6037333,53.2218243 C90.6037333,51.7544595 89.5288,50.5990541 87.8468,50.5990541 L86.3001333,50.5990541 L86.3001333,55.8445946 L87.8468,55.8445946 Z" id="Shape" fill="#FFFFFF" fill-rule="nonzero"></path>
            <path d="M92.0614667,53.7610135 L92.0614667,50.237027 C92.0261367,50.0826187 92.0893047,49.9224086 92.2206841,49.8332111 C92.3520635,49.7440136 92.5248698,49.7440136 92.6562492,49.8332111 C92.7876287,49.9224086 92.8507966,50.0826187 92.8154667,50.237027 L92.8154667,53.7032432 C92.8154667,55.1359459 93.5888,55.937027 94.8493333,55.937027 C96.1098667,55.937027 96.8522667,55.2014189 96.8522667,53.7533108 L96.8522667,50.2293243 C96.8522667,50.0166201 97.0253832,49.8441892 97.2389333,49.8441892 C97.4524834,49.8441892 97.6256,50.0166201 97.6256,50.2293243 L97.6256,53.6955405 C97.6256,55.6212162 96.512,56.6302703 94.8493333,56.6302703 C93.1866667,56.6302703 92.0614667,55.6327703 92.0614667,53.7610135 Z" id="Shape" fill="#FFFFFF" fill-rule="nonzero"></path>
            <path d="M98.2984,53.2410811 L98.2984,53.2218243 C98.2732498,52.3186719 98.6170419,51.4439973 99.2511235,50.7979084 C99.8852051,50.1518194 100.755319,49.7896011 101.6624,49.7941216 C102.534339,49.7710945 103.382656,50.0779762 104.036533,50.652973 C104.128989,50.7280252 104.185189,50.8385815 104.1912,50.9572297 C104.1912,51.169934 104.018083,51.3423649 103.804533,51.3423649 C103.715423,51.3392494 103.629267,51.3097505 103.557067,51.2576351 C103.047232,50.7600559 102.360706,50.483211 101.646933,50.4873649 C100.9395,50.4960147 100.2659,50.7903467 99.7804223,51.3029434 C99.294945,51.81554 99.0391881,52.5024805 99.0717333,53.2064189 L99.0717333,53.2256757 C99.0392502,53.9310699 99.2945505,54.6195675 99.7795717,55.1345841 C100.264593,55.6496007 100.938106,55.9473572 101.646933,55.9601351 C102.389677,55.9692242 103.104245,55.6773007 103.626667,55.1513514 C103.687778,55.0861242 103.77297,55.0485658 103.862533,55.0473649 C104.055452,55.0604047 104.209042,55.2133857 104.222133,55.4055405 C104.223305,55.5073582 104.179471,55.604539 104.102267,55.6712838 C103.444021,56.3171011 102.551326,56.6699862 101.6276,56.649527 C100.727316,56.6531068 99.8642293,56.2920992 99.2364373,55.6493636 C98.6086452,55.006628 98.270062,54.1373619 98.2984,53.2410811 L98.2984,53.2410811 Z" id="Shape" fill="#FFFFFF" fill-rule="nonzero"></path>
            <path d="M104.4,56.0410135 L107.106667,50.1638514 C107.176769,49.9627423 107.368563,49.8291742 107.582267,49.8326351 L107.620933,49.8326351 C107.832323,49.8280332 108.02138,49.9629875 108.084933,50.1638514 L110.7916,56.0333108 C110.821657,56.091933 110.838795,56.1562739 110.841867,56.222027 C110.841872,56.3176922 110.803456,56.4093841 110.735179,56.4766669 C110.666902,56.5439497 110.57444,56.5812314 110.4784,56.5802027 C110.305014,56.5778552 110.151124,56.4690261 110.091733,56.3067568 L109.3996,54.7662162 L105.749467,54.7662162 L105.053467,56.3067568 C104.998604,56.4579316 104.855245,56.5592669 104.693867,56.5609459 C104.603305,56.5619889 104.516148,56.5266164 104.452107,56.4628293 C104.388066,56.3990422 104.352553,56.3122296 104.3536,56.222027 C104.355479,56.1590198 104.371324,56.0972061 104.4,56.0410135 Z M109.105733,54.1153378 L107.559067,50.7261486 L106.0124,54.1153378 L109.105733,54.1153378 Z" id="Shape" fill="#FFFFFF" fill-rule="nonzero"></path>
            <path d="M112.419467,50.5990541 L110.486133,50.5990541 C110.294783,50.5991001 110.138472,50.44683 110.134267,50.2562838 C110.138366,50.0644397 110.293526,49.909894 110.486133,49.9058108 L115.102933,49.9058108 C115.296391,49.9078941 115.452708,50.0635924 115.4548,50.2562838 C115.45378,50.3482154 115.416134,50.4359775 115.350145,50.5002606 C115.284156,50.5645437 115.19523,50.6000812 115.102933,50.5990541 L113.1696,50.5990541 L113.1696,56.2027703 C113.1696,56.4154745 112.996483,56.5879054 112.782933,56.5879054 C112.569383,56.5879054 112.396267,56.4154745 112.396267,56.2027703 L112.419467,50.5990541 Z" id="Shape" fill="#FFFFFF" fill-rule="nonzero"></path>
            <path d="M116.096667,50.237027 C116.057521,50.0814546 116.119268,49.918004 116.251668,49.8267238 C116.384067,49.7354436 116.5594,49.7354436 116.691799,49.8267238 C116.824198,49.918004 116.885945,50.0814546 116.8468,50.237027 L116.8468,56.2027703 C116.885945,56.3583427 116.824198,56.5217933 116.691799,56.6130735 C116.5594,56.7043537 116.384067,56.7043537 116.251668,56.6130735 C116.119268,56.5217933 116.057521,56.3583427 116.096667,56.2027703 L116.096667,50.237027 Z" id="Shape" fill="#FFFFFF" fill-rule="nonzero"></path>
            <path d="M117.712933,53.2410811 L117.712933,53.2218243 C117.667705,51.9874313 118.301818,50.8266903 119.366976,50.1941053 C120.432134,49.5615203 121.758837,49.5577555 122.827597,50.184285 C123.896356,50.8108146 124.537099,51.9679379 124.498933,53.2025676 L124.498933,53.2218243 C124.516713,54.1295277 124.165199,55.0058143 123.524332,55.6513963 C122.883466,56.2969783 122.007722,56.6569794 121.096267,56.649527 C120.188627,56.6613068 119.315249,56.3047131 118.677053,55.6617807 C118.038858,55.0188483 117.690794,54.1449335 117.712933,53.2410811 Z M123.717867,53.2410811 L123.717867,53.2218243 C123.746149,52.5093148 123.483231,51.815821 122.989179,51.2997735 C122.495126,50.783726 121.812146,50.4892118 121.096267,50.4835135 C120.383795,50.4849138 119.702771,50.7759351 119.210791,51.2892321 C118.718811,51.8025292 118.458513,52.4936157 118.490133,53.2025676 L118.490133,53.2218243 C118.462924,53.9336803 118.72632,54.6261656 119.220255,55.1413647 C119.71419,55.6565639 120.396552,55.9505506 121.111733,55.9562838 C121.826188,55.9590446 122.510639,55.670392 123.005881,55.1574673 C123.501124,54.6445427 123.763989,53.952056 123.733333,53.2410811 L123.717867,53.2410811 Z" id="Shape" fill="#FFFFFF" fill-rule="nonzero"></path>
            <path d="M125.28,50.2485811 C125.28,50.0358768 125.453117,49.8634459 125.666667,49.8634459 L125.771067,49.8634459 C125.928514,49.8647083 126.074381,49.9460705 126.157733,50.0791216 L130.190667,55.2283784 L130.190667,50.2216216 C130.176295,50.0826544 130.242628,49.9476651 130.361625,49.8737161 C130.480622,49.7997671 130.631511,49.7997671 130.750508,49.8737161 C130.869505,49.9476651 130.935838,50.0826544 130.921467,50.2216216 L130.921467,56.2297297 C130.925733,56.3219059 130.891647,56.4117547 130.827247,56.4780865 C130.762847,56.5444184 130.673834,56.5813612 130.5812,56.5802027 L130.542533,56.5802027 C130.385143,56.5685942 130.242177,56.4845789 130.155867,56.352973 L126.030133,51.0997297 L126.030133,56.2297297 C126.044505,56.368697 125.978172,56.5036862 125.859175,56.5776352 C125.740178,56.6515843 125.589289,56.6515843 125.470292,56.5776352 C125.351295,56.5036862 125.284962,56.368697 125.299333,56.2297297 L125.28,50.2485811 Z" id="Shape" fill="#FFFFFF" fill-rule="nonzero"></path>
            <rect id="Rectangle-path" fill="#FFFFFF" fill-rule="nonzero" x="62.7405333" y="8.18412162" width="8.3288" height="33.125473"></rect>
            <polygon id="Shape" fill="#FFFFFF" points="116.1276 28.5154054 126.339467 28.5154054 126.339467 20.3505405 116.1276 20.3505405 116.1276 16.1872297 122.318133 16.1872297 122.318133 8.18412162 107.802667 8.18412162 107.802667 41.3057432 130.3608 41.3057432 130.3608 32.6787162 116.1276 32.6787162"></polygon>
            <path d="M97.2737333,22.0489865 C98.4285485,18.85288 97.9483606,15.2968509 95.9867507,12.5182433 C94.0251409,9.73963576 90.8278929,8.08660088 87.4176,8.08783784 L76.9466667,8.08783784 L76.9466667,41.402027 L91.6013333,41.402027 L91.6013333,41.247973 C96.2474745,41.2500446 100.339361,38.2023725 101.651024,33.762878 C102.962686,29.3233836 101.180405,24.5538916 97.2737333,22.0489865 Z M85.3296,16.4375676 L87.4949333,16.4375676 C88.6908139,16.4375676 89.6602667,17.4031805 89.6602667,18.5943243 C89.6602667,19.7854682 88.6908139,20.7510811 87.4949333,20.7510811 L85.3296,20.7510811 L85.3296,16.4375676 Z M91.3616,33.0522973 L85.3296,33.0522973 L85.3296,28.7349324 L91.3616,28.7349324 C92.5229661,28.7838038 93.4392367,29.7358168 93.4392367,30.8936149 C93.4392367,32.0514129 92.5229661,33.0034259 91.3616,33.0522973 Z" id="Shape" fill="#FFFFFF"></path>
            <path d="M17.5817333,8.26114865 L17.5817333,28.1148649 L17.5817333,28.1148649 C17.5817333,28.2072973 17.5817333,28.2997297 17.5817333,28.3960135 C17.5817333,30.718744 15.6913004,32.6016891 13.3593333,32.6016891 C11.0273662,32.6016891 9.13693338,30.718744 9.13693333,28.3960135 C9.13693333,28.2997297 9.13693333,28.2072973 9.13693333,28.1148649 L9.13693333,28.1148649 L9.13693333,8.26114865 L0.831333333,8.26114865 L0.831333333,28.8851351 L0.831333333,28.8851351 C0.831333333,35.7820708 6.4446379,41.3731419 13.369,41.3731419 C20.2933621,41.3731419 25.9066667,35.7820708 25.9066667,28.8851351 L25.9066667,28.8851351 L25.9066667,8.26114865 L17.5817333,8.26114865 Z" id="Shape" fill="#FFFFFF" fill-rule="nonzero"></path>
            <polygon id="Shape" fill="#FFFFFF" fill-rule="nonzero" points="56.8593333 8.24189189 48.4184 8.24189189 48.4184 23.1235135 31.7878667 3.57790541 31.7878667 8.24189189 31.7878667 16.5877703 31.7878667 41.3673649 40.2288 41.3673649 40.2288 26.5088514 56.7394667 45.9081081 56.8516 45.8156757 56.8516 41.3596622 56.8593333 41.3673649"></polygon>
            <rect id="Rectangle-path" fill="#FFFFFF" fill-rule="nonzero" x="145.344133" y="20.5431081" width="8.48733333" height="8.45371622"></rect>
            <rect id="Rectangle-path" fill="#00A3E1" fill-rule="nonzero" x="154.6048" y="29.7670946" width="8.48733333" height="8.45371622"></rect>
            <rect id="Rectangle-path" fill="#FFFFFF" fill-rule="nonzero" transform="translate(167.953388, 24.917217) rotate(-45.000000) translate(-167.953388, -24.917217) " x="163.709721" y="20.6922848" width="8.48733333" height="8.44986486"></rect>
            <rect id="Rectangle-path" fill="#00A3E1" fill-rule="nonzero" transform="translate(149.680888, 43.135423) rotate(-45.000000) translate(-149.680888, -43.135423) " x="145.437222" y="38.9085646" width="8.48733333" height="8.45371622"></rect>
            <rect id="Rectangle-path" fill="#FFFFFF" fill-rule="nonzero" transform="translate(149.318186, 6.360045) rotate(-45.000000) translate(-149.318186, -6.360045) " x="145.07452" y="2.13318667" width="8.48733333" height="8.45371622"></rect>
            <rect id="Rectangle-path" fill="#00A3E1" fill-rule="nonzero" x="135.971333" y="11.2074324" width="8.48733333" height="8.45371622"></rect>
            <path d="M140.418,38.8293243 C137.687704,38.8314431 135.472238,36.6293384 135.468684,33.9098578 C135.465131,31.1903772 137.674836,28.9825366 140.405128,28.9775773 C143.135421,28.9726179 145.353195,31.1724165 145.3596,33.8918919 C145.36268,35.1996497 144.843532,36.4549521 143.91658,37.3811228 C142.989627,38.3072935 141.730961,38.8283054 140.418,38.8293243 L140.418,38.8293243 Z" id="Shape" fill="#FFFFFF"></path>
            <path d="M158.695733,20.6239865 C156.695128,20.6255445 154.890645,19.4263811 154.123962,17.5858303 C153.357279,15.7452796 153.779437,13.6259401 155.193526,12.2163501 C156.607615,10.80676 158.735052,10.3846164 160.583521,11.1468226 C162.43199,11.9090288 163.637333,13.7054259 163.637333,15.6981081 C163.637334,18.4170923 161.425529,20.6218606 158.695733,20.6239865 L158.695733,20.6239865 Z" id="Shape" fill="#00A3E1"></path>
        </g>
    </g>
</svg>